Info: Starting: Create block symbol file (.bsf)
Info: ip-generate --project-directory=/home/cc3769/ES_Project/csee4840_10gbe/BlazePPS_v2/hardware/ --output-directory=/home/cc3769/ES_Project/csee4840_10gbe/BlazePPS_v2/hardware/blazepps/ --report-file=bsf:/home/cc3769/ES_Project/csee4840_10gbe/BlazePPS_v2/hardware/blazepps.bsf --system-info=DEVICE_FAMILY="Cyclone V" --system-info=DEVICE=5CSXFC6D6F31C8ES --system-info=DEVICE_SPEEDGRADE=8_H6 --component-file=/home/cc3769/ES_Project/csee4840_10gbe/BlazePPS_v2/hardware/blazepps.qsys
Progress: Loading hardware/blazepps.qsys
Progress: Reading input file
Progress: Adding clk_0 [clock_source 13.1]
Progress: Parameterizing module clk_0
Progress: Adding hps_0 [altera_hps 13.1]
Progress: Parameterizing module hps_0
Progress: Adding master_0 [altera_jtag_avalon_master 13.1]
Progress: Parameterizing module master_0
Progress: Adding button_pio_0 [altera_avalon_pio 13.1]
Progress: Parameterizing module button_pio_0
Progress: Adding xaui_clk [clock_source 13.1]
Progress: Parameterizing module xaui_clk
Progress: Adding tx_oc_fifo_0 [altera_avalon_fifo 13.1]
Progress: Parameterizing module tx_oc_fifo_0
Progress: Adding rx_oc_fifo_0 [altera_avalon_fifo 13.1]
Progress: Parameterizing module rx_oc_fifo_0
Progress: Adding tx_dc_fifo_0 [altera_avalon_dc_fifo 13.1]
Progress: Parameterizing module tx_dc_fifo_0
Progress: Adding rx_dc_fifo_0 [altera_avalon_dc_fifo 13.1]
Progress: Parameterizing module rx_dc_fifo_0
Progress: Adding eth_10g_mac_0 [altera_eth_10g_mac 13.1]
Progress: Parameterizing module eth_10g_mac_0
Progress: Building connections
Progress: Parameterizing connections
Progress: Validating
Progress: Done reading input file
Info: blazepps.tx_oc_fifo_0: For Avalon-ST and Avalon-MM combinations, data width is 32 bits.
Info: blazepps.rx_oc_fifo_0: For Avalon-ST and Avalon-MM combinations, data width is 32 bits.
Info: blazepps.rx_dc_fifo_0.out/rx_oc_fifo_0.in: The source has a ready signal of 1 bits, but the sink does not. Avalon Streaming Transform will be executed.
Info: blazepps.rx_dc_fifo_0.out/rx_oc_fifo_0.in: The width of the data signal from the source is 64 bits, but is 32 bits to the sink. Avalon Streaming Transform will be executed.
Info: blazepps.rx_dc_fifo_0.out/rx_oc_fifo_0.in: The width of the empty signal from the source is 3 bits, but is 2 bits to the sink. Avalon Streaming Transform will be executed.
Info: blazepps.tx_oc_fifo_0.out/tx_dc_fifo_0.in: The sink has a ready signal of 1 bits, but the source does not. Avalon Streaming Transform will be executed.
Info: blazepps.tx_oc_fifo_0.out/tx_dc_fifo_0.in: The width of the data signal from the source is 32 bits, but is 64 bits to the sink. Avalon Streaming Transform will be executed.
Info: blazepps.tx_oc_fifo_0.out/tx_dc_fifo_0.in: The width of the empty signal from the source is 2 bits, but is 3 bits to the sink. Avalon Streaming Transform will be executed.
Warning: blazepps.xaui_clk.clk/eth_10g_mac_0.csr_clk: eth_10g_mac_0.csr_clk requires 156250000Hz, but source has frequency of 15625000Hz
Warning: blazepps.xaui_clk.clk/eth_10g_mac_0.tx_clk: eth_10g_mac_0.tx_clk requires 156250000Hz, but source has frequency of 15625000Hz
Warning: blazepps.xaui_clk.clk/eth_10g_mac_0.rx_clk: eth_10g_mac_0.rx_clk requires 156250000Hz, but source has frequency of 15625000Hz
Info: blazepps.tx_dc_fifo_0.out/eth_10g_mac_0.avalon_st_tx: The sink has a error signal of 1 bits, but the source does not. Avalon Streaming Transform will be executed.
Info: blazepps.eth_10g_mac_0.avalon_st_rx/rx_dc_fifo_0.in: The source has a error signal of 6 bits, but the sink does not. Avalon Streaming Transform will be executed.
Warning: blazepps.eth_10g_mac_0: eth_10g_mac_0.csr must be connected to an Avalon-MM master
Warning: blazepps.eth_10g_mac_0.avalon_st_pause: eth_10g_mac_0.avalon_st_pause must be connected to an Avalon-ST source
Warning: blazepps.eth_10g_mac_0.avalon_st_rxstatus: eth_10g_mac_0.avalon_st_rxstatus must be connected to an Avalon-ST sink
Warning: blazepps.eth_10g_mac_0.link_fault_status_xgmii_rx: eth_10g_mac_0.link_fault_status_xgmii_rx must be connected to an Avalon-ST sink
Info: ip-generate succeeded.
Info: Finished: Create block symbol file (.bsf)
Info: 
Info: Starting: Create HDL design files for synthesis
Info: ip-generate --project-directory=/home/cc3769/ES_Project/csee4840_10gbe/BlazePPS_v2/hardware/ --output-directory=/home/cc3769/ES_Project/csee4840_10gbe/BlazePPS_v2/hardware/blazepps/synthesis/ --file-set=QUARTUS_SYNTH --report-file=html:/home/cc3769/ES_Project/csee4840_10gbe/BlazePPS_v2/hardware/blazepps.html --report-file=sopcinfo:/home/cc3769/ES_Project/csee4840_10gbe/BlazePPS_v2/hardware/blazepps.sopcinfo --report-file=cmp:/home/cc3769/ES_Project/csee4840_10gbe/BlazePPS_v2/hardware/blazepps.cmp --report-file=qip:/home/cc3769/ES_Project/csee4840_10gbe/BlazePPS_v2/hardware/blazepps/synthesis/blazepps.qip --report-file=svd --report-file=regmap:/home/cc3769/ES_Project/csee4840_10gbe/BlazePPS_v2/hardware/blazepps/synthesis/blazepps.regmap --report-file=debuginfo:/home/cc3769/ES_Project/csee4840_10gbe/BlazePPS_v2/hardware/blazepps/synthesis/blazepps.debuginfo --system-info=DEVICE_FAMILY="Cyclone V" --system-info=DEVICE=5CSXFC6D6F31C8ES --system-info=DEVICE_SPEEDGRADE=8_H6 --component-file=/home/cc3769/ES_Project/csee4840_10gbe/BlazePPS_v2/hardware/blazepps.qsys --language=VERILOG
Progress: Loading hardware/blazepps.qsys
Progress: Reading input file
Progress: Adding clk_0 [clock_source 13.1]
Progress: Parameterizing module clk_0
Progress: Adding hps_0 [altera_hps 13.1]
Progress: Parameterizing module hps_0
Progress: Adding master_0 [altera_jtag_avalon_master 13.1]
Progress: Parameterizing module master_0
Progress: Adding button_pio_0 [altera_avalon_pio 13.1]
Progress: Parameterizing module button_pio_0
Progress: Adding xaui_clk [clock_source 13.1]
Progress: Parameterizing module xaui_clk
Progress: Adding tx_oc_fifo_0 [altera_avalon_fifo 13.1]
Progress: Parameterizing module tx_oc_fifo_0
Progress: Adding rx_oc_fifo_0 [altera_avalon_fifo 13.1]
Progress: Parameterizing module rx_oc_fifo_0
Progress: Adding tx_dc_fifo_0 [altera_avalon_dc_fifo 13.1]
Progress: Parameterizing module tx_dc_fifo_0
Progress: Adding rx_dc_fifo_0 [altera_avalon_dc_fifo 13.1]
Progress: Parameterizing module rx_dc_fifo_0
Progress: Adding eth_10g_mac_0 [altera_eth_10g_mac 13.1]
Progress: Parameterizing module eth_10g_mac_0
Progress: Building connections
Progress: Parameterizing connections
Progress: Validating
Progress: Done reading input file
Info: blazepps.tx_oc_fifo_0: For Avalon-ST and Avalon-MM combinations, data width is 32 bits.
Info: blazepps.rx_oc_fifo_0: For Avalon-ST and Avalon-MM combinations, data width is 32 bits.
Info: blazepps.rx_dc_fifo_0.out/rx_oc_fifo_0.in: The source has a ready signal of 1 bits, but the sink does not. Avalon Streaming Transform will be executed.
Info: blazepps.rx_dc_fifo_0.out/rx_oc_fifo_0.in: The width of the data signal from the source is 64 bits, but is 32 bits to the sink. Avalon Streaming Transform will be executed.
Info: blazepps.rx_dc_fifo_0.out/rx_oc_fifo_0.in: The width of the empty signal from the source is 3 bits, but is 2 bits to the sink. Avalon Streaming Transform will be executed.
Info: blazepps.tx_oc_fifo_0.out/tx_dc_fifo_0.in: The sink has a ready signal of 1 bits, but the source does not. Avalon Streaming Transform will be executed.
Info: blazepps.tx_oc_fifo_0.out/tx_dc_fifo_0.in: The width of the data signal from the source is 32 bits, but is 64 bits to the sink. Avalon Streaming Transform will be executed.
Info: blazepps.tx_oc_fifo_0.out/tx_dc_fifo_0.in: The width of the empty signal from the source is 2 bits, but is 3 bits to the sink. Avalon Streaming Transform will be executed.
Warning: blazepps.xaui_clk.clk/eth_10g_mac_0.csr_clk: eth_10g_mac_0.csr_clk requires 156250000Hz, but source has frequency of 15625000Hz
Warning: blazepps.xaui_clk.clk/eth_10g_mac_0.tx_clk: eth_10g_mac_0.tx_clk requires 156250000Hz, but source has frequency of 15625000Hz
Warning: blazepps.xaui_clk.clk/eth_10g_mac_0.rx_clk: eth_10g_mac_0.rx_clk requires 156250000Hz, but source has frequency of 15625000Hz
Info: blazepps.tx_dc_fifo_0.out/eth_10g_mac_0.avalon_st_tx: The sink has a error signal of 1 bits, but the source does not. Avalon Streaming Transform will be executed.
Info: blazepps.eth_10g_mac_0.avalon_st_rx/rx_dc_fifo_0.in: The source has a error signal of 6 bits, but the sink does not. Avalon Streaming Transform will be executed.
Warning: blazepps.eth_10g_mac_0: eth_10g_mac_0.csr must be connected to an Avalon-MM master
Warning: blazepps.eth_10g_mac_0.avalon_st_pause: eth_10g_mac_0.avalon_st_pause must be connected to an Avalon-ST source
Warning: blazepps.eth_10g_mac_0.avalon_st_rxstatus: eth_10g_mac_0.avalon_st_rxstatus must be connected to an Avalon-ST sink
Warning: blazepps.eth_10g_mac_0.link_fault_status_xgmii_rx: eth_10g_mac_0.link_fault_status_xgmii_rx must be connected to an Avalon-ST sink
Info: blazepps: Generating blazepps "blazepps" for QUARTUS_SYNTH
Info: pipeline_bridge_swap_transform: After transform: 9 modules, 37 connections
Info: No custom instruction connections, skipping transform 
Info: merlin_initial_interconnect_transform: After transform: 5 modules, 11 connections
Info: merlin_translator_transform: After transform: 8 modules, 20 connections
Info: merlin_domain_transform: After transform: 17 modules, 64 connections
Info: merlin_router_transform: After transform: 22 modules, 79 connections
Info: merlin_traffic_limiter_transform: After transform: 25 modules, 91 connections
Info: merlin_burst_transform: After transform: 27 modules, 97 connections
Info: merlin_network_to_switch_transform: After transform: 36 modules, 119 connections
Info: limiter_update_transform: After transform: 36 modules, 122 connections
Info: merlin_clock_and_reset_bridge_transform: After transform: 40 modules, 160 connections
Info: merlin_hierarchy_transform: After transform: 10 modules, 41 connections
Info: merlin_mm_transform: After transform: 10 modules, 41 connections
Warning: hps_0.f2h_irq0: Cannot connect clock for irq_mapper.sender
Warning: hps_0.f2h_irq0: Cannot connect reset for irq_mapper.sender
Warning: hps_0.f2h_irq1: Cannot connect clock for irq_mapper_001.sender
Warning: hps_0.f2h_irq1: Cannot connect reset for irq_mapper_001.sender
Info: merlin_interrupt_mapper_transform: After transform: 12 modules, 43 connections
Info: avalon_st_adapter: Inserting data_format_adapter: data_format_adapter_0
Info: avalon_st_adapter: Inserting timing_adapter: timing_adapter_0
Info: avalon_st_adapter_001: Inserting data_format_adapter: data_format_adapter_0
Info: avalon_st_adapter_001: Inserting timing_adapter: timing_adapter_0
Info: avalon_st_adapter_002: Inserting error_adapter: error_adapter_0
Info: avalon_st_adapter_003: Inserting error_adapter: error_adapter_0
Info: com_altera_sopcmodel_transforms_avalonst_AvalonStreamingTransform: After transform: 16 modules, 56 connections
Info: reset_adaptation_transform: After transform: 20 modules, 62 connections
Info: hps_0: "Doing Pretransform for module: hps_0"
Info: pipeline_bridge_swap_transform: After transform: 2 modules, 0 connections
Info: No custom instruction connections, skipping transform 
Info: hps_0: "blazepps" instantiated altera_hps "hps_0"
Info: pipeline_bridge_swap_transform: After transform: 10 modules, 24 connections
Info: No custom instruction connections, skipping transform 
Info: reset_adaptation_transform: After transform: 11 modules, 26 connections
Info: master_0: "blazepps" instantiated altera_jtag_avalon_master "master_0"
Info: tx_oc_fifo_0: Starting RTL generation for module 'blazepps_tx_oc_fifo_0'
Info: tx_oc_fifo_0:   Generation command is [exec /opt/altera/13.1/quartus/linux/perl/bin/perl -I /opt/altera/13.1/quartus/linux/perl/lib -I /opt/altera/13.1/quartus/sopc_builder/bin/europa -I /opt/altera/13.1/quartus/sopc_builder/bin/perl_lib -I /opt/altera/13.1/quartus/sopc_builder/bin -I /opt/altera/13.1/quartus/../ip/altera/sopc_builder_ip/common -I /opt/altera/13.1/quartus/../ip/altera/sopc_builder_ip/altera_avalon_fifo -- /opt/altera/13.1/quartus/../ip/altera/sopc_builder_ip/altera_avalon_fifo/generate_rtl.pl --name=blazepps_tx_oc_fifo_0 --dir=/tmp/alt6562_6098891946398556751.dir/0001_tx_oc_fifo_0_gen/ --quartus_dir=/opt/altera/13.1/quartus --verilog --config=/tmp/alt6562_6098891946398556751.dir/0001_tx_oc_fifo_0_gen//blazepps_tx_oc_fifo_0_component_configuration.pl  --do_build_sim=0  ]
Info: tx_oc_fifo_0: Done RTL generation for module 'blazepps_tx_oc_fifo_0'
Info: tx_oc_fifo_0: "blazepps" instantiated altera_avalon_fifo "tx_oc_fifo_0"
Info: rx_oc_fifo_0: Starting RTL generation for module 'blazepps_rx_oc_fifo_0'
Info: rx_oc_fifo_0:   Generation command is [exec /opt/altera/13.1/quartus/linux/perl/bin/perl -I /opt/altera/13.1/quartus/linux/perl/lib -I /opt/altera/13.1/quartus/sopc_builder/bin/europa -I /opt/altera/13.1/quartus/sopc_builder/bin/perl_lib -I /opt/altera/13.1/quartus/sopc_builder/bin -I /opt/altera/13.1/quartus/../ip/altera/sopc_builder_ip/common -I /opt/altera/13.1/quartus/../ip/altera/sopc_builder_ip/altera_avalon_fifo -- /opt/altera/13.1/quartus/../ip/altera/sopc_builder_ip/altera_avalon_fifo/generate_rtl.pl --name=blazepps_rx_oc_fifo_0 --dir=/tmp/alt6562_6098891946398556751.dir/0002_rx_oc_fifo_0_gen/ --quartus_dir=/opt/altera/13.1/quartus --verilog --config=/tmp/alt6562_6098891946398556751.dir/0002_rx_oc_fifo_0_gen//blazepps_rx_oc_fifo_0_component_configuration.pl  --do_build_sim=0  ]
Info: rx_oc_fifo_0: Done RTL generation for module 'blazepps_rx_oc_fifo_0'
Info: rx_oc_fifo_0: "blazepps" instantiated altera_avalon_fifo "rx_oc_fifo_0"
Info: tx_dc_fifo_0: "blazepps" instantiated altera_avalon_dc_fifo "tx_dc_fifo_0"
Info: pipeline_bridge_swap_transform: After transform: 57 modules, 205 connections
Info: No custom instruction connections, skipping transform 
Info: merlin_initial_interconnect_transform: After transform: 17 modules, 41 connections
Info: merlin_translator_transform: After transform: 31 modules, 83 connections
Info: merlin_domain_transform: After transform: 72 modules, 272 connections
Info: merlin_router_transform: After transform: 86 modules, 314 connections
Info: merlin_traffic_limiter_transform: After transform: 87 modules, 318 connections
Info: merlin_network_to_switch_transform: After transform: 114 modules, 372 connections
Info: Inserting clock-crossing logic between cmd_xbar_demux.src0 and cmd_xbar_mux.sink0
Info: Inserting clock-crossing logic between cmd_xbar_demux.src1 and cmd_xbar_mux_001.sink0
Info: Inserting clock-crossing logic between cmd_xbar_demux.src2 and cmd_xbar_mux_002.sink0
Info: Inserting clock-crossing logic between cmd_xbar_demux.src3 and cmd_xbar_mux_003.sink0
Info: Inserting clock-crossing logic between cmd_xbar_demux.src4 and cmd_xbar_mux_004.sink0
Info: Inserting clock-crossing logic between cmd_xbar_demux.src5 and cmd_xbar_mux_005.sink0
Info: Inserting clock-crossing logic between cmd_xbar_demux.src6 and cmd_xbar_mux_006.sink0
Info: Inserting clock-crossing logic between cmd_xbar_demux.src7 and cmd_xbar_mux_007.sink0
Info: Inserting clock-crossing logic between cmd_xbar_demux.src8 and cmd_xbar_mux_008.sink0
Info: Inserting clock-crossing logic between cmd_xbar_demux.src9 and cmd_xbar_mux_009.sink0
Info: Inserting clock-crossing logic between cmd_xbar_demux.src10 and cmd_xbar_mux_010.sink0
Info: Inserting clock-crossing logic between cmd_xbar_demux.src11 and cmd_xbar_mux_011.sink0
Info: Inserting clock-crossing logic between cmd_xbar_demux.src12 and cmd_xbar_mux_012.sink0
Info: Inserting clock-crossing logic between rsp_xbar_demux.src0 and rsp_xbar_mux.sink0
Info: Inserting clock-crossing logic between rsp_xbar_demux_001.src0 and rsp_xbar_mux.sink1
Info: Inserting clock-crossing logic between rsp_xbar_demux_002.src0 and rsp_xbar_mux.sink2
Info: Inserting clock-crossing logic between rsp_xbar_demux_003.src0 and rsp_xbar_mux.sink3
Info: Inserting clock-crossing logic between rsp_xbar_demux_004.src0 and rsp_xbar_mux.sink4
Info: Inserting clock-crossing logic between rsp_xbar_demux_005.src0 and rsp_xbar_mux.sink5
Info: Inserting clock-crossing logic between rsp_xbar_demux_006.src0 and rsp_xbar_mux.sink6
Info: Inserting clock-crossing logic between rsp_xbar_demux_007.src0 and rsp_xbar_mux.sink7
Info: Inserting clock-crossing logic between rsp_xbar_demux_008.src0 and rsp_xbar_mux.sink8
Info: Inserting clock-crossing logic between rsp_xbar_demux_009.src0 and rsp_xbar_mux.sink9
Info: Inserting clock-crossing logic between rsp_xbar_demux_010.src0 and rsp_xbar_mux.sink10
Info: Inserting clock-crossing logic between rsp_xbar_demux_011.src0 and rsp_xbar_mux.sink11
Info: Inserting clock-crossing logic between rsp_xbar_demux_012.src0 and rsp_xbar_mux.sink12
Info: com_altera_sopcmodel_transforms_avalon_ClockCrossingTransform: After transform: 140 modules, 502 connections
Info: limiter_update_transform: After transform: 140 modules, 503 connections
Info: merlin_clock_and_reset_bridge_transform: After transform: 148 modules, 674 connections
Info: merlin_hierarchy_transform: After transform: 58 modules, 214 connections
Info: merlin_mm_transform: After transform: 58 modules, 214 connections
Info: reset_adaptation_transform: After transform: 63 modules, 224 connections
Info: eth_10g_mac_0: "blazepps" instantiated altera_eth_10g_mac "eth_10g_mac_0"
Info: pipeline_bridge_swap_transform: After transform: 35 modules, 114 connections
Info: No custom instruction connections, skipping transform 
Info: merlin_initial_interconnect_transform: After transform: 0 modules, 0 connections
Info: No Avalon connections, skipping transform 
Info: merlin_hierarchy_transform: After transform: 35 modules, 114 connections
Info: merlin_initial_interconnect_transform: After transform: 0 modules, 0 connections
Info: No Avalon connections, skipping transform 
Info: merlin_hierarchy_transform: After transform: 35 modules, 114 connections
Info: merlin_initial_interconnect_transform: After transform: 0 modules, 0 connections
Info: No Avalon connections, skipping transform 
Info: merlin_hierarchy_transform: After transform: 35 modules, 114 connections
Info: mm_interconnect_0: "blazepps" instantiated altera_merlin_interconnect_wrapper "mm_interconnect_0"
Info: irq_mapper: "blazepps" instantiated altera_irq_mapper "irq_mapper"
Info: pipeline_bridge_swap_transform: After transform: 4 modules, 6 connections
Info: No custom instruction connections, skipping transform 
Info: avalon_st_adapter: "blazepps" instantiated altera_avalon_st_adapter "avalon_st_adapter"
Info: pipeline_bridge_swap_transform: After transform: 4 modules, 6 connections
Info: No custom instruction connections, skipping transform 
Info: avalon_st_adapter_001: "blazepps" instantiated altera_avalon_st_adapter "avalon_st_adapter_001"
Info: pipeline_bridge_swap_transform: After transform: 3 modules, 3 connections
Info: No custom instruction connections, skipping transform 
Info: avalon_st_adapter_002: "blazepps" instantiated altera_avalon_st_adapter "avalon_st_adapter_002"
Info: pipeline_bridge_swap_transform: After transform: 3 modules, 3 connections
Info: No custom instruction connections, skipping transform 
Info: avalon_st_adapter_003: "blazepps" instantiated altera_avalon_st_adapter "avalon_st_adapter_003"
Info: rst_controller: "blazepps" instantiated altera_reset_controller "rst_controller"
Info: fpga_interfaces: "hps_0" instantiated altera_interface_generator "fpga_interfaces"
Info: pipeline_bridge_swap_transform: After transform: 1 modules, 0 connections
Info: No custom instruction connections, skipping transform 
Info: hps_io: "hps_0" instantiated altera_hps_io "hps_io"
Info: jtag_phy_embedded_in_jtag_master: "master_0" instantiated altera_jtag_dc_streaming "jtag_phy_embedded_in_jtag_master"
Info: timing_adt: Starting generation. 
Info: timing_adt: "master_0" instantiated timing_adapter "timing_adt"
Info: fifo: "master_0" instantiated altera_avalon_sc_fifo "fifo"
Info: b2p: "master_0" instantiated altera_avalon_st_bytes_to_packets "b2p"
Info: p2b: "master_0" instantiated altera_avalon_st_packets_to_bytes "p2b"
Info: transacto: "master_0" instantiated altera_avalon_packets_to_master "transacto"
Info: b2p_adapter: Starting generation. 
Info: b2p_adapter: "master_0" instantiated channel_adapter "b2p_adapter"
Info: p2b_adapter: Starting generation. 
Info: p2b_adapter: "master_0" instantiated channel_adapter "p2b_adapter"
Info: merlin_master_translator: "eth_10g_mac_0" instantiated altera_merlin_master_translator "merlin_master_translator"
Info: tx_register_map: "eth_10g_mac_0" instantiated altera_eth_10g_tx_register_map "tx_register_map"
Info: Reusing file /home/cc3769/ES_Project/csee4840_10gbe/BlazePPS_v2/hardware/blazepps/synthesis/submodules/altera_avalon_st_clock_crosser.v
Info: tx_eth_packet_underflow_control: "eth_10g_mac_0" instantiated altera_eth_packet_underflow_control "tx_eth_packet_underflow_control"
Info: tx_eth_pad_inserter: "eth_10g_mac_0" instantiated altera_eth_pad_inserter "tx_eth_pad_inserter"
Info: tx_eth_pkt_backpressure_control: "eth_10g_mac_0" instantiated altera_eth_pkt_backpressure_control "tx_eth_pkt_backpressure_control"
Info: tx_eth_pause_beat_conversion: "eth_10g_mac_0" instantiated altera_eth_pause_beat_conversion "tx_eth_pause_beat_conversion"
Info: tx_st_pipeline_stage_pad_inserter_pkt_backpressure_control: "eth_10g_mac_0" instantiated altera_avalon_st_pipeline_stage "tx_st_pipeline_stage_pad_inserter_pkt_backpressure_control"
Info: Reusing file /home/cc3769/ES_Project/csee4840_10gbe/BlazePPS_v2/hardware/blazepps/synthesis/submodules/altera_avalon_st_pipeline_base.v
Info: tx_eth_pause_ctrl_gen: "eth_10g_mac_0" instantiated altera_eth_pause_ctrl_gen "tx_eth_pause_ctrl_gen"
Info: tx_st_pause_ctrl_error_adapter: Starting generation. 
Info: tx_st_pause_ctrl_error_adapter: "eth_10g_mac_0" instantiated error_adapter "tx_st_pause_ctrl_error_adapter"
Info: tx_st_mux_flow_control_user_frame: Starting generation. 
Info: tx_st_mux_flow_control_user_frame: "eth_10g_mac_0" instantiated multiplexer "tx_st_mux_flow_control_user_frame"
Info: tx_st_splitter_2: "eth_10g_mac_0" instantiated altera_avalon_st_splitter "tx_st_splitter_2"
Info: tx_eth_address_inserter: "eth_10g_mac_0" instantiated altera_eth_address_inserter "tx_eth_address_inserter"
Info: tx_st_error_adapter_no_crc: Starting generation. 
Info: tx_st_error_adapter_no_crc: "eth_10g_mac_0" instantiated error_adapter "tx_st_error_adapter_no_crc"
Info: tx_eth_packet_formatter: "eth_10g_mac_0" instantiated altera_eth_packet_formatter "tx_eth_packet_formatter"
Info: tx_eth_xgmii_termination: "eth_10g_mac_0" instantiated altera_eth_xgmii_termination "tx_eth_xgmii_termination"
Info: tx_st_timing_adapter_splitter_in: Starting generation. 
Info: tx_st_timing_adapter_splitter_in: "eth_10g_mac_0" instantiated timing_adapter "tx_st_timing_adapter_splitter_in"
Info: tx_st_timing_adapter_splitter_out_0: Starting generation. 
Info: tx_st_timing_adapter_splitter_out_0: "eth_10g_mac_0" instantiated timing_adapter "tx_st_timing_adapter_splitter_out_0"
Info: tx_eth_link_fault_generation: "eth_10g_mac_0" instantiated altera_eth_link_fault_generation "tx_eth_link_fault_generation"
Info: tx_preamble_passthrough: "eth_10g_mac_0" instantiated altera_eth_preamble_custom "tx_preamble_passthrough"
Info: Reusing file /home/cc3769/ES_Project/csee4840_10gbe/BlazePPS_v2/hardware/blazepps/synthesis/submodules/altera_avalon_sc_fifo.v
Info: rx_register_map: "eth_10g_mac_0" instantiated altera_eth_10g_rx_register_map "rx_register_map"
Info: Reusing file /home/cc3769/ES_Project/csee4840_10gbe/BlazePPS_v2/hardware/blazepps/synthesis/submodules/altera_avalon_st_clock_crosser.v
Info: rx_eth_link_fault_detection: "eth_10g_mac_0" instantiated altera_eth_link_fault_detection "rx_eth_link_fault_detection"
Info: rx_eth_lane_decoder: "eth_10g_mac_0" instantiated altera_eth_lane_decoder "rx_eth_lane_decoder"
Info: rx_st_timing_adapter_frame_status_in: Starting generation. 
Info: rx_st_timing_adapter_frame_status_in: "eth_10g_mac_0" instantiated timing_adapter "rx_st_timing_adapter_frame_status_in"
Info: rx_eth_frame_decoder: "eth_10g_mac_0" instantiated altera_eth_frame_decoder "rx_eth_frame_decoder"
Info: Reusing file /home/cc3769/ES_Project/csee4840_10gbe/BlazePPS_v2/hardware/blazepps/synthesis/submodules/altera_avalon_st_pipeline_stage.sv
Info: Reusing file /home/cc3769/ES_Project/csee4840_10gbe/BlazePPS_v2/hardware/blazepps/synthesis/submodules/altera_avalon_st_pipeline_base.v
Info: rx_eth_crc_checker: "eth_10g_mac_0" instantiated altera_eth_crc "rx_eth_crc_checker"
Info: rx_timing_adapter_frame_status_out_frame_decoder: Starting generation. 
Info: rx_timing_adapter_frame_status_out_frame_decoder: "eth_10g_mac_0" instantiated timing_adapter "rx_timing_adapter_frame_status_out_frame_decoder"
Info: rx_eth_frame_status_merger: "eth_10g_mac_0" instantiated altera_eth_frame_status_merger "rx_eth_frame_status_merger"
Info: rx_eth_crc_pad_rem: "eth_10g_mac_0" instantiated altera_eth_crc_pad_rem "rx_eth_crc_pad_rem"
Info: Reusing file /home/cc3769/ES_Project/csee4840_10gbe/BlazePPS_v2/hardware/blazepps/synthesis/submodules/altera_avalon_st_pipeline_stage.sv
Info: Reusing file /home/cc3769/ES_Project/csee4840_10gbe/BlazePPS_v2/hardware/blazepps/synthesis/submodules/altera_avalon_st_pipeline_base.v
Info: rx_preamble_inserter: "eth_10g_mac_0" instantiated altera_eth_preamble_inserter "rx_preamble_inserter"
Info: Reusing file /home/cc3769/ES_Project/csee4840_10gbe/BlazePPS_v2/hardware/blazepps/synthesis/submodules/altera_avalon_sc_fifo.v
Info: rx_eth_packet_overflow_control: "eth_10g_mac_0" instantiated altera_eth_packet_overflow_control "rx_eth_packet_overflow_control"
Info: rx_st_status_output_delay: "eth_10g_mac_0" instantiated altera_avalon_st_delay "rx_st_status_output_delay"
Info: rx_st_error_adapter_stat: Starting generation. 
Info: rx_st_error_adapter_stat: "eth_10g_mac_0" instantiated error_adapter "rx_st_error_adapter_stat"
Info: txrx_timing_adapter_link_fault_status_rx: Starting generation. 
Info: txrx_timing_adapter_link_fault_status_rx: "eth_10g_mac_0" instantiated timing_adapter "txrx_timing_adapter_link_fault_status_rx"
Info: txrx_timing_adapter_link_fault_status_export: Starting generation. 
Info: txrx_timing_adapter_link_fault_status_export: "eth_10g_mac_0" instantiated timing_adapter "txrx_timing_adapter_link_fault_status_export"
Info: rxtx_timing_adapter_pauselen_rx: Starting generation. 
Info: rxtx_timing_adapter_pauselen_rx: "eth_10g_mac_0" instantiated timing_adapter "rxtx_timing_adapter_pauselen_rx"
Info: rxtx_timing_adapter_pauselen_tx: Starting generation. 
Info: rxtx_timing_adapter_pauselen_tx: "eth_10g_mac_0" instantiated timing_adapter "rxtx_timing_adapter_pauselen_tx"
Info: pipeline_bridge_swap_transform: After transform: 131 modules, 466 connections
Info: No custom instruction connections, skipping transform 
Info: merlin_initial_interconnect_transform: After transform: 0 modules, 0 connections
Info: No Avalon connections, skipping transform 
Info: merlin_hierarchy_transform: After transform: 131 modules, 466 connections
Info: merlin_initial_interconnect_transform: After transform: 0 modules, 0 connections
Info: No Avalon connections, skipping transform 
Info: merlin_hierarchy_transform: After transform: 131 modules, 466 connections
Info: merlin_initial_interconnect_transform: After transform: 0 modules, 0 connections
Info: No Avalon connections, skipping transform 
Info: merlin_hierarchy_transform: After transform: 131 modules, 466 connections
Info: merlin_initial_interconnect_transform: After transform: 0 modules, 0 connections
Info: No Avalon connections, skipping transform 
Info: merlin_hierarchy_transform: After transform: 131 modules, 466 connections
Info: merlin_initial_interconnect_transform: After transform: 0 modules, 0 connections
Info: No Avalon connections, skipping transform 
Info: merlin_hierarchy_transform: After transform: 131 modules, 466 connections
Info: merlin_initial_interconnect_transform: After transform: 0 modules, 0 connections
Info: No Avalon connections, skipping transform 
Info: merlin_hierarchy_transform: After transform: 131 modules, 466 connections
Info: merlin_initial_interconnect_transform: After transform: 0 modules, 0 connections
Info: No Avalon connections, skipping transform 
Info: merlin_hierarchy_transform: After transform: 131 modules, 466 connections
Info: merlin_initial_interconnect_transform: After transform: 0 modules, 0 connections
Info: No Avalon connections, skipping transform 
Info: merlin_hierarchy_transform: After transform: 131 modules, 466 connections
Info: merlin_initial_interconnect_transform: After transform: 0 modules, 0 connections
Info: No Avalon connections, skipping transform 
Info: merlin_hierarchy_transform: After transform: 131 modules, 466 connections
Info: merlin_initial_interconnect_transform: After transform: 0 modules, 0 connections
Info: No Avalon connections, skipping transform 
Info: merlin_hierarchy_transform: After transform: 131 modules, 466 connections
Info: merlin_initial_interconnect_transform: After transform: 0 modules, 0 connections
Info: No Avalon connections, skipping transform 
Info: merlin_hierarchy_transform: After transform: 131 modules, 466 connections
Info: merlin_initial_interconnect_transform: After transform: 0 modules, 0 connections
Info: No Avalon connections, skipping transform 
Info: merlin_hierarchy_transform: After transform: 131 modules, 466 connections
Info: merlin_initial_interconnect_transform: After transform: 0 modules, 0 connections
Info: No Avalon connections, skipping transform 
Info: merlin_hierarchy_transform: After transform: 131 modules, 466 connections
Info: merlin_initial_interconnect_transform: After transform: 0 modules, 0 connections
Info: No Avalon connections, skipping transform 
Info: merlin_hierarchy_transform: After transform: 131 modules, 466 connections
Info: mm_interconnect_0: "eth_10g_mac_0" instantiated altera_merlin_interconnect_wrapper "mm_interconnect_0"
Info: rx_oc_fifo_0_out_translator: "mm_interconnect_0" instantiated altera_merlin_slave_translator "rx_oc_fifo_0_out_translator"
Info: hps_0_h2f_lw_axi_master_agent: "mm_interconnect_0" instantiated altera_merlin_axi_master_ni "hps_0_h2f_lw_axi_master_agent"
Info: master_0_master_translator_avalon_universal_master_0_agent: "mm_interconnect_0" instantiated altera_merlin_master_agent "master_0_master_translator_avalon_universal_master_0_agent"
Info: rx_oc_fifo_0_out_translator_avalon_universal_slave_0_agent: "mm_interconnect_0" instantiated altera_merlin_slave_agent "rx_oc_fifo_0_out_translator_avalon_universal_slave_0_agent"
Info: addr_router: "mm_interconnect_0" instantiated altera_merlin_router "addr_router"
Info: id_router: "mm_interconnect_0" instantiated altera_merlin_router "id_router"
Info: limiter: "mm_interconnect_0" instantiated altera_merlin_traffic_limiter "limiter"
Info: Reusing file /home/cc3769/ES_Project/csee4840_10gbe/BlazePPS_v2/hardware/blazepps/synthesis/submodules/altera_avalon_sc_fifo.v
Info: Reusing file /home/cc3769/ES_Project/csee4840_10gbe/BlazePPS_v2/hardware/blazepps/synthesis/submodules/altera_avalon_st_pipeline_base.v
Info: burst_adapter: "mm_interconnect_0" instantiated altera_merlin_burst_adapter "burst_adapter"
Info: Reusing file /home/cc3769/ES_Project/csee4840_10gbe/BlazePPS_v2/hardware/blazepps/synthesis/submodules/altera_merlin_address_alignment.sv
Info: cmd_xbar_demux: "mm_interconnect_0" instantiated altera_merlin_demultiplexer "cmd_xbar_demux"
Info: cmd_xbar_mux: "mm_interconnect_0" instantiated altera_merlin_multiplexer "cmd_xbar_mux"
Info: rsp_xbar_demux: "mm_interconnect_0" instantiated altera_merlin_demultiplexer "rsp_xbar_demux"
Info: rsp_xbar_mux: "mm_interconnect_0" instantiated altera_merlin_multiplexer "rsp_xbar_mux"
Info: Reusing file /home/cc3769/ES_Project/csee4840_10gbe/BlazePPS_v2/hardware/blazepps/synthesis/submodules/altera_merlin_arbitrator.sv
Info: data_format_adapter_0: Starting generation. 
Info: data_format_adapter_0_state_ram: Starting generation. 
Info: data_format_adapter_0_data_ram: Starting generation. 
Info: data_format_adapter_0: "avalon_st_adapter" instantiated data_format_adapter "data_format_adapter_0"
Info: timing_adapter_0: Starting generation. 
Info: timing_adapter_0: "avalon_st_adapter" instantiated timing_adapter "timing_adapter_0"
Info: data_format_adapter_0: Starting generation. 
Info: data_format_adapter_0_state_ram: Starting generation. 
Info: data_format_adapter_0_data_ram: Starting generation. 
Info: data_format_adapter_0_sop_ram: Starting generation. 
Info: data_format_adapter_0: "avalon_st_adapter_001" instantiated data_format_adapter "data_format_adapter_0"
Info: timing_adapter_0: Starting generation. 
Info: timing_adapter_0: "avalon_st_adapter_001" instantiated timing_adapter "timing_adapter_0"
Info: error_adapter_0: Starting generation. 
Info: error_adapter_0: "avalon_st_adapter_002" instantiated error_adapter "error_adapter_0"
Info: error_adapter_0: Starting generation. 
Info: error_adapter_0: "avalon_st_adapter_003" instantiated error_adapter "error_adapter_0"
Info: border: "hps_io" instantiated altera_interface_generator "border"
Info: addr_router: "mm_interconnect_0" instantiated altera_merlin_router "addr_router"
Info: id_router: "mm_interconnect_0" instantiated altera_merlin_router "id_router"
Info: cmd_xbar_demux: "mm_interconnect_0" instantiated altera_merlin_demultiplexer "cmd_xbar_demux"
Info: cmd_xbar_mux: "mm_interconnect_0" instantiated altera_merlin_multiplexer "cmd_xbar_mux"
Info: Reusing file /home/cc3769/ES_Project/csee4840_10gbe/BlazePPS_v2/hardware/blazepps/synthesis/submodules/altera_merlin_arbitrator.sv
Info: rsp_xbar_demux: "mm_interconnect_0" instantiated altera_merlin_demultiplexer "rsp_xbar_demux"
Info: rsp_xbar_mux: "mm_interconnect_0" instantiated altera_merlin_multiplexer "rsp_xbar_mux"
Info: Reusing file /home/cc3769/ES_Project/csee4840_10gbe/BlazePPS_v2/hardware/blazepps/synthesis/submodules/altera_merlin_arbitrator.sv
Info: crosser: "mm_interconnect_0" instantiated altera_avalon_st_handshake_clock_crosser "crosser"
Info: Reusing file /home/cc3769/ES_Project/csee4840_10gbe/BlazePPS_v2/hardware/blazepps/synthesis/submodules/altera_avalon_st_clock_crosser.v
Info: Reusing file /home/cc3769/ES_Project/csee4840_10gbe/BlazePPS_v2/hardware/blazepps/synthesis/submodules/altera_avalon_st_pipeline_base.v
Info: blazepps: Done "blazepps" with 87 modules, 171 files, 3818225 bytes
Info: ip-generate succeeded.
Info: Finished: Create HDL design files for synthesis
